"R2_lane1-ATCGAGCC.ACCTCTTG"	2
"R2_lane1-ATCGAGCC.ACTGTGGA"	4
"R2_lane1-ATCGAGCC.CACTGTAC"	4
"R2_lane1-ATCGAGCC.GATGATCC"	3
"R2_lane1-ATCGAGCC.GTGACTTG"	4
"R2_lane1-ATCGAGCC.TCAAGCCT"	4
"R2_lane1-CAGGCTTG.ACAGACTG"	3
"R2_lane1-CAGGCTTG.ACGTTCAC"	3
"R2_lane1-CAGGCTTG.AGAGTGTC"	4
"R2_lane1-CAGGCTTG.AGTCGTAT"	4
"R2_lane1-CAGGCTTG.ATCGACGA"	4
"R2_lane1-CAGGCTTG.CTGATTCT"	4
"R2_lane1-CAGGCTTG.GATGATCC"	4
"R2_lane1-CAGGCTTG.GCAGGATT"	4
"R2_lane1-CAGGCTTG.GGTCAACT"	3
"R2_lane1-CCAGCGCG.AACGCGTA"	4
"R2_lane1-CCAGCGCG.AAGCCATC"	4
"R2_lane1-CCAGCGCG.AATCAGAG"	4
"R2_lane1-CCAGCGCG.AGGTCTCA"	4
"R2_lane1-CCAGCGCG.CAGTCCAA"	4
"R2_lane1-CCAGCGCG.CTACTAGG"	4
"R2_lane1-CCAGCGCG.GTGACTTG"	4
"R2_lane1-CCAGCGCG.TCGCATCA"	4
"R2_lane1-CCAGCGCG.TGCAGTGA"	4
"R2_lane1-CCAGCGCG.TTCTCGAG"	4
"R2_lane1-CCGAAGTG.ACTGTGGA"	4
"R2_lane1-CCGAAGTG.AGCAACCT"	4
"R2_lane1-CCGAAGTG.AGCATATG"	4
"R2_lane1-CCGAAGTG.ATTACGCT"	4
"R2_lane1-CCGAAGTG.CATTGAGT"	4
"R2_lane1-CCGAAGTG.CCTTATAG"	3
"R2_lane1-CCGAAGTG.CTACTAGG"	4
"R2_lane1-CCGAAGTG.CTTAGAAG"	4
"R2_lane1-CCGAAGTG.TCCGTCTA"	3
"R2_lane1-CCGAAGTG.TGTAATCG"	3
"R2_lane1-CCGAAGTG.TGTCTGCA"	4
"R2_lane1-CCGTCAGA.CAGCATAT"	3
"R2_lane1-CCGTCAGA.CCTTATAG"	4
"R2_lane1-CCGTCAGA.CTTAGAAG"	4
"R2_lane1-CCGTCAGA.GAACTATA"	4
"R2_lane1-CCGTCAGA.GCCATTAA"	4
"R2_lane1-CCGTCAGA.TCGGTACT"	4
"R2_lane1-CCGTCAGA.TTAATCGA"	1
"R2_lane1-CCTCCTCA.CACATGGA"	4
"R2_lane1-CCTCCTCA.CAGTCCAA"	3
"R2_lane1-CCTCCTCA.TACTAAGC"	3
"R2_lane1-CCTCCTCA.TCAAGCCT"	4
"R2_lane1-CCTCCTCA.TCCGTCTA"	4
"R2_lane1-CCTCCTCA.TCTACATG"	4
"R2_lane1-CCTCCTCA.TTAACGTC"	3
"R2_lane1-CCTGGCAG.CAAGCTGA"	4
"R2_lane1-CCTGGCAG.CTAGTGAA"	1
"R2_lane1-CCTGGCAG.CTTGGTTA"	4
"R2_lane1-CCTGGCAG.GATTCTTA"	4
"R2_lane1-CCTGGCAG.GTCCATTC"	4
"R2_lane1-CCTGGCAG.TCAAGCCT"	4
"R2_lane1-CCTGGCAG.TCTACATG"	4
"R2_lane1-CCTGGCAG.TTCGCTCA"	4
"R2_lane1-CGCAGCAA.ACTTGATA"	4
"R2_lane1-CGCAGCAA.CTGATTCT"	4
"R2_lane1-CGCAGCAA.GAACTATA"	4
"R2_lane1-CGCAGCAA.GGTGTCAT"	4
"R2_lane1-CGCAGCAA.TCAAGCCT"	3
"R2_lane1-CGCATGGC.ACGTTCAC"	4
"R2_lane1-CGCATGGC.AGTCGTAT"	4
"R2_lane1-CGCATGGC.CCTTATAG"	4
"R2_lane1-CGCATGGC.CTGATTCT"	4
"R2_lane1-CGCATGGC.GTATCTAT"	4
"R2_lane1-CGCATGGC.GTCCATTC"	4
"R2_lane1-CGCGAGTA.ACGTGTGT"	4
"R2_lane1-CGCGAGTA.ACTCTACG"	4
"R2_lane1-CGCGAGTA.ATACATGT"	1
"R2_lane1-CGCGAGTA.ATACGCCA"	4
"R2_lane1-CGCGAGTA.CCTTATAG"	4
"R2_lane1-CGCGAGTA.GATTCTTA"	4
"R2_lane1-CGCGAGTA.GATTGCAG"	4
"R2_lane1-CGCGAGTA.TATCTTGT"	3
"R2_lane1-CGCGAGTA.TTGACCAT"	3
"R2_lane1-CTCTCACG.ACAGACTG"	3
"R2_lane1-CTCTCACG.ACTGCTAC"	2
"R2_lane1-CTCTCACG.AGAGTGTC"	4
"R2_lane1-CTCTCACG.AGGTCTCA"	4
"R2_lane1-CTCTCACG.AGTCGTAT"	3
"R2_lane1-CTCTCACG.ATACGCCA"	2
"R2_lane1-CTCTCACG.ATCGACGA"	1
"R2_lane1-CTCTCACG.GTCCATTC"	4
"R2_lane1-CTCTCACG.TCACTGAG"	3
"R2_lane1-CTCTCACG.TCAGATGC"	2
"R2_lane1-CTGGTCAC.ACGAAGAT"	4
"R2_lane1-CTGGTCAC.ACGTGTGT"	4
"R2_lane1-CTGGTCAC.AGCAACCT"	1
"R2_lane1-CTGGTCAC.CACATGGA"	4
"R2_lane1-CTGGTCAC.CACTAGCT"	4
"R2_lane1-CTGGTCAC.CACTGTAC"	2
"R2_lane1-GACCAGGC.ACGAAGAT"	4
"R2_lane1-GACCAGGC.AGCAACCT"	4
"R2_lane1-GACCAGGC.CGCTTAAT"	4
"R2_lane1-GACCAGGC.GCTAACGA"	4
"R2_lane1-GACCAGGC.TCACTGAG"	1
"R2_lane1-GACCAGGC.TCGCATCA"	4
"R2_lane1-GACCAGGC.TTAATCGA"	4
"R2_lane1-GAGGAGCA.AAGAGCTG"	3
"R2_lane1-GAGGAGCA.AGTCGTAT"	4
"R2_lane1-GAGGAGCA.CACTGTAC"	3
"R2_lane1-GAGGAGCA.CTTGGTTA"	4
"R2_lane1-GAGGAGCA.GAGTACGT"	4
"R2_lane1-GAGGAGCA.GTATCTAT"	3
"R2_lane1-GAGGAGCA.TATCTTGT"	3
"R2_lane1-GAGGAGCA.TCCGTCTA"	4
"R2_lane1-GAGGAGCA.TCGTGAAG"	4
"R2_lane1-GAGGAGCA.TCTACATG"	2
"R2_lane1-GAGGAGCA.TGAGGCAA"	3
"R2_lane1-GCCTCGAA.AATCAGAG"	3
"R2_lane1-GCCTCGAA.CAAGCTGA"	4
"R2_lane1-GCCTCGAA.CTAGTGAA"	4
"R2_lane1-GCCTCGAA.GATTCTTA"	3
"R2_lane1-GCCTCGAA.GTCATAGT"	3
"R2_lane1-GCCTCGAA.TGACCTTG"	3
"R2_lane1-GCCTCGAA.TTCGCTCA"	3
"R2_lane1-GCCTTAGG.ATATCAGA"	4
"R2_lane1-GCCTTAGG.GATGATCC"	4
"R2_lane1-GCCTTAGG.GTGACTTG"	3
"R2_lane1-GCCTTAGG.GTGTAGCA"	4
"R2_lane1-GCCTTAGG.TCGTGAAG"	4
"R2_lane1-GCCTTAGG.TGACCTTG"	4
"R2_lane1-GCCTTAGG.TGTAATCG"	4
"R2_lane1-GCCTTAGG.TTGACCAT"	3
"R2_lane1-GCTCGCTA.CACATGGA"	4
"R2_lane1-GCTCGCTA.CATTGAGT"	4
"R2_lane1-GCTCGCTA.CCTTATAG"	4
"R2_lane1-GCTCGCTA.CGTACGTA"	3
"R2_lane1-GCTCGCTA.CTTGGTTA"	4
"R2_lane1-GCTCGCTA.GCTAACGA"	4
"R2_lane1-GCTCGCTA.TACCGGAA"	4
"R2_lane1-GCTCGCTA.TTAACGTC"	4
"R2_lane1-GGAGTGGA.ACCTCTTG"	4
"R2_lane1-GGAGTGGA.ACGTTCAC"	3
"R2_lane1-GGAGTGGA.AGTTATGC"	2
"R2_lane1-GGAGTGGA.ATTACGCT"	4
"R2_lane1-GGAGTGGA.CACATGGA"	2
"R2_lane1-GGAGTGGA.CAGCATAT"	4
"R2_lane1-GGAGTGGA.GCAGGATT"	4
"R2_lane1-GGAGTGGA.GTAGACAC"	3
"R2_lane1-GGAGTGGA.GTCCATTC"	4
"R2_lane1-GGAGTGGA.TCGGTACT"	4
"R2_lane1-GGAGTGGA.TCTACATG"	3
"R2_lane1-GTCGGCAT.ACGTTCAC"	4
"R2_lane1-GTCGGCAT.CCTTATAG"	3
"R2_lane1-GTCGGCAT.CGCCAATA"	1
"R2_lane1-GTCGGCAT.GAACTATA"	4
"R2_lane1-GTCGGCAT.GATGATCC"	4
"R2_lane1-GTCGGCAT.GCCATTAA"	4
"R2_lane1-GTCGGCAT.TGTCTGCA"	4
"R2_lane1-TCACGAGC.ACGTGTGT"	4
"R2_lane1-TCACGAGC.ACTGTGGA"	4
"R2_lane1-TCACGAGC.ATACATGT"	4
"R2_lane1-TCACGAGC.ATGCTTAA"	4
"R2_lane1-TCACGAGC.TACCGGAA"	4
"R2_lane1-TCACGAGC.TACTAAGC"	4
"R2_lane1-TCACGAGC.TTAACGTC"	4
"R2_lane1-TCACGAGC.TTCTCGAG"	4
"R2_lane1-TCCGTGAG.AGCATATG"	3
"R2_lane1-TCCGTGAG.ATTACGCT"	2
"R2_lane1-TCCGTGAG.CATTGAGT"	4
"R2_lane1-TCCGTGAG.CTACTAGG"	3
"R2_lane1-TCCGTGAG.GCTAACGA"	4
"R2_lane1-TCGGATCG.CATGTCCA"	4
"R2_lane1-TCGGATCG.GATGATCC"	4
"R2_lane1-TCGGATCG.GTGACTTG"	3
"R2_lane1-TCGGATCG.TCAGATGC"	4
"R2_lane1-TCGGATCG.TCCGTCTA"	3
"R2_lane2-ATCGAGCC.ACCTCTTG"	3
"R2_lane2-ATCGAGCC.ACTGTGGA"	4
"R2_lane2-ATCGAGCC.CACTGTAC"	4
"R2_lane2-ATCGAGCC.GATGATCC"	3
"R2_lane2-ATCGAGCC.GTGACTTG"	4
"R2_lane2-ATCGAGCC.TCAAGCCT"	3
"R2_lane2-CAGGCTTG.ACAGACTG"	3
"R2_lane2-CAGGCTTG.ACGTTCAC"	4
"R2_lane2-CAGGCTTG.AGAGTGTC"	4
"R2_lane2-CAGGCTTG.AGTCGTAT"	4
"R2_lane2-CAGGCTTG.ATCGACGA"	4
"R2_lane2-CAGGCTTG.CTGATTCT"	4
"R2_lane2-CAGGCTTG.GATGATCC"	4
"R2_lane2-CAGGCTTG.GCAGGATT"	4
"R2_lane2-CAGGCTTG.GGTCAACT"	3
"R2_lane2-CCAGCGCG.AACGCGTA"	4
"R2_lane2-CCAGCGCG.AAGCCATC"	4
"R2_lane2-CCAGCGCG.AATCAGAG"	3
"R2_lane2-CCAGCGCG.AGGTCTCA"	4
"R2_lane2-CCAGCGCG.CAGTCCAA"	4
"R2_lane2-CCAGCGCG.CTACTAGG"	4
"R2_lane2-CCAGCGCG.GTGACTTG"	3
"R2_lane2-CCAGCGCG.TCGCATCA"	4
"R2_lane2-CCAGCGCG.TGCAGTGA"	4
"R2_lane2-CCAGCGCG.TTCTCGAG"	4
"R2_lane2-CCGAAGTG.ACTGTGGA"	4
"R2_lane2-CCGAAGTG.AGCAACCT"	4
"R2_lane2-CCGAAGTG.AGCATATG"	4
"R2_lane2-CCGAAGTG.ATTACGCT"	4
"R2_lane2-CCGAAGTG.CATTGAGT"	4
"R2_lane2-CCGAAGTG.CCTTATAG"	3
"R2_lane2-CCGAAGTG.CTACTAGG"	4
"R2_lane2-CCGAAGTG.CTTAGAAG"	4
"R2_lane2-CCGAAGTG.TCCGTCTA"	3
"R2_lane2-CCGAAGTG.TGTAATCG"	3
"R2_lane2-CCGAAGTG.TGTCTGCA"	4
"R2_lane2-CCGTCAGA.CAGCATAT"	3
"R2_lane2-CCGTCAGA.CCTTATAG"	4
"R2_lane2-CCGTCAGA.CTTAGAAG"	4
"R2_lane2-CCGTCAGA.GAACTATA"	4
"R2_lane2-CCGTCAGA.GCCATTAA"	4
"R2_lane2-CCGTCAGA.TCGGTACT"	4
"R2_lane2-CCGTCAGA.TTAATCGA"	1
"R2_lane2-CCTCCTCA.CACATGGA"	4
"R2_lane2-CCTCCTCA.CAGTCCAA"	3
"R2_lane2-CCTCCTCA.TACTAAGC"	3
"R2_lane2-CCTCCTCA.TCAAGCCT"	3
"R2_lane2-CCTCCTCA.TCCGTCTA"	4
"R2_lane2-CCTCCTCA.TCTACATG"	4
"R2_lane2-CCTCCTCA.TTAACGTC"	4
"R2_lane2-CCTGGCAG.CAAGCTGA"	4
"R2_lane2-CCTGGCAG.CTAGTGAA"	1
"R2_lane2-CCTGGCAG.CTTGGTTA"	4
"R2_lane2-CCTGGCAG.GATTCTTA"	4
"R2_lane2-CCTGGCAG.GTCCATTC"	4
"R2_lane2-CCTGGCAG.TCAAGCCT"	4
"R2_lane2-CCTGGCAG.TCTACATG"	4
"R2_lane2-CCTGGCAG.TTCGCTCA"	4
"R2_lane2-CGCAGCAA.ACTTGATA"	4
"R2_lane2-CGCAGCAA.CTGATTCT"	4
"R2_lane2-CGCAGCAA.GAACTATA"	4
"R2_lane2-CGCAGCAA.GGTGTCAT"	4
"R2_lane2-CGCAGCAA.TCAAGCCT"	3
"R2_lane2-CGCATGGC.ACGTTCAC"	4
"R2_lane2-CGCATGGC.AGTCGTAT"	4
"R2_lane2-CGCATGGC.CCTTATAG"	4
"R2_lane2-CGCATGGC.CTGATTCT"	4
"R2_lane2-CGCATGGC.GTATCTAT"	4
"R2_lane2-CGCATGGC.GTCCATTC"	4
"R2_lane2-CGCGAGTA.ACGTGTGT"	4
"R2_lane2-CGCGAGTA.ACTCTACG"	4
"R2_lane2-CGCGAGTA.ATACATGT"	1
"R2_lane2-CGCGAGTA.ATACGCCA"	3
"R2_lane2-CGCGAGTA.CCTTATAG"	4
"R2_lane2-CGCGAGTA.GATTCTTA"	4
"R2_lane2-CGCGAGTA.GATTGCAG"	4
"R2_lane2-CGCGAGTA.TATCTTGT"	3
"R2_lane2-CGCGAGTA.TTGACCAT"	3
"R2_lane2-CTCTCACG.ACAGACTG"	4
"R2_lane2-CTCTCACG.ACTGCTAC"	2
"R2_lane2-CTCTCACG.AGAGTGTC"	4
"R2_lane2-CTCTCACG.AGGTCTCA"	4
"R2_lane2-CTCTCACG.AGTCGTAT"	3
"R2_lane2-CTCTCACG.ATACGCCA"	4
"R2_lane2-CTCTCACG.ATCGACGA"	1
"R2_lane2-CTCTCACG.GTCCATTC"	4
"R2_lane2-CTCTCACG.TCACTGAG"	3
"R2_lane2-CTCTCACG.TCAGATGC"	2
"R2_lane2-CTGGTCAC.ACGAAGAT"	4
"R2_lane2-CTGGTCAC.ACGTGTGT"	4
"R2_lane2-CTGGTCAC.AGCAACCT"	1
"R2_lane2-CTGGTCAC.CACATGGA"	4
"R2_lane2-CTGGTCAC.CACTAGCT"	4
"R2_lane2-CTGGTCAC.CACTGTAC"	2
"R2_lane2-GACCAGGC.ACGAAGAT"	4
"R2_lane2-GACCAGGC.AGCAACCT"	4
"R2_lane2-GACCAGGC.CGCTTAAT"	4
"R2_lane2-GACCAGGC.GCTAACGA"	4
"R2_lane2-GACCAGGC.TCACTGAG"	1
"R2_lane2-GACCAGGC.TCGCATCA"	4
"R2_lane2-GACCAGGC.TTAATCGA"	3
"R2_lane2-GAGGAGCA.AAGAGCTG"	3
"R2_lane2-GAGGAGCA.AGTCGTAT"	3
"R2_lane2-GAGGAGCA.CACTGTAC"	3
"R2_lane2-GAGGAGCA.CTTGGTTA"	4
"R2_lane2-GAGGAGCA.GAGTACGT"	4
"R2_lane2-GAGGAGCA.GTATCTAT"	3
"R2_lane2-GAGGAGCA.TATCTTGT"	3
"R2_lane2-GAGGAGCA.TCCGTCTA"	4
"R2_lane2-GAGGAGCA.TCGTGAAG"	4
"R2_lane2-GAGGAGCA.TCTACATG"	2
"R2_lane2-GAGGAGCA.TGAGGCAA"	3
"R2_lane2-GCCTCGAA.AATCAGAG"	3
"R2_lane2-GCCTCGAA.CAAGCTGA"	4
"R2_lane2-GCCTCGAA.CTAGTGAA"	4
"R2_lane2-GCCTCGAA.GATTCTTA"	3
"R2_lane2-GCCTCGAA.GTCATAGT"	2
"R2_lane2-GCCTCGAA.TGACCTTG"	4
"R2_lane2-GCCTCGAA.TTCGCTCA"	3
"R2_lane2-GCCTTAGG.ATATCAGA"	4
"R2_lane2-GCCTTAGG.GATGATCC"	4
"R2_lane2-GCCTTAGG.GTGACTTG"	3
"R2_lane2-GCCTTAGG.GTGTAGCA"	4
"R2_lane2-GCCTTAGG.TCGTGAAG"	4
"R2_lane2-GCCTTAGG.TGACCTTG"	4
"R2_lane2-GCCTTAGG.TGTAATCG"	4
"R2_lane2-GCCTTAGG.TTGACCAT"	3
"R2_lane2-GCTCGCTA.CACATGGA"	4
"R2_lane2-GCTCGCTA.CATTGAGT"	4
"R2_lane2-GCTCGCTA.CCTTATAG"	3
"R2_lane2-GCTCGCTA.CGTACGTA"	2
"R2_lane2-GCTCGCTA.CTTGGTTA"	4
"R2_lane2-GCTCGCTA.GCTAACGA"	4
"R2_lane2-GCTCGCTA.TACCGGAA"	4
"R2_lane2-GCTCGCTA.TTAACGTC"	4
"R2_lane2-GGAGTGGA.ACCTCTTG"	4
"R2_lane2-GGAGTGGA.ACGTTCAC"	3
"R2_lane2-GGAGTGGA.AGTTATGC"	2
"R2_lane2-GGAGTGGA.ATTACGCT"	4
"R2_lane2-GGAGTGGA.CACATGGA"	4
"R2_lane2-GGAGTGGA.CAGCATAT"	4
"R2_lane2-GGAGTGGA.GCAGGATT"	4
"R2_lane2-GGAGTGGA.GTAGACAC"	3
"R2_lane2-GGAGTGGA.GTCCATTC"	4
"R2_lane2-GGAGTGGA.TCGGTACT"	4
"R2_lane2-GGAGTGGA.TCTACATG"	4
"R2_lane2-GTCGGCAT.ACGTTCAC"	4
"R2_lane2-GTCGGCAT.CCTTATAG"	3
"R2_lane2-GTCGGCAT.CGCCAATA"	1
"R2_lane2-GTCGGCAT.GAACTATA"	4
"R2_lane2-GTCGGCAT.GATGATCC"	4
"R2_lane2-GTCGGCAT.GCCATTAA"	4
"R2_lane2-GTCGGCAT.TGTCTGCA"	4
"R2_lane2-TCACGAGC.ACGTGTGT"	4
"R2_lane2-TCACGAGC.ACTGTGGA"	4
"R2_lane2-TCACGAGC.ATACATGT"	4
"R2_lane2-TCACGAGC.ATGCTTAA"	4
"R2_lane2-TCACGAGC.TACCGGAA"	4
"R2_lane2-TCACGAGC.TACTAAGC"	4
"R2_lane2-TCACGAGC.TTAACGTC"	4
"R2_lane2-TCACGAGC.TTCTCGAG"	4
"R2_lane2-TCCGTGAG.AGCATATG"	3
"R2_lane2-TCCGTGAG.ATTACGCT"	2
"R2_lane2-TCCGTGAG.CATTGAGT"	4
"R2_lane2-TCCGTGAG.CTACTAGG"	3
"R2_lane2-TCCGTGAG.GCTAACGA"	4
"R2_lane2-TCGGATCG.CATGTCCA"	4
"R2_lane2-TCGGATCG.GATGATCC"	4
"R2_lane2-TCGGATCG.GTGACTTG"	3
"R2_lane2-TCGGATCG.TCAGATGC"	4
"R2_lane2-TCGGATCG.TCCGTCTA"	3
